Change Component DesignItemId : Designator=L3 Old DesignItemId=Inductor New DesignItemId=Res1
Change Component Footprint: Designator=L3 Old Footprint=0603 New Footprint=AXIAL-0.3
Change Component Comment : Designator=L3 Old Comment=Inductor New Comment=L TH 330uHy
