Removed Member From Class: ClassName=ADC Member=J2
Change Component Designator: OldDesignator=J2 NewDesignator=J4
Change Component Designator: OldDesignator=J4 NewDesignator=J12
Added Component: Designator=J13(SIP2)
Added Component: Designator=J14(SIP2)
Added Pin To Net: NetName=AGND Pin=J13-1
Added Pin To Net: NetName=AGND Pin=J13-2
Added Pin To Net: NetName=AGND Pin=J14-1
Added Pin To Net: NetName=AGND Pin=J14-2
Added Member To Class: ClassName=ADC Member=Component J4 CON2
Added Member To Class: ClassName=ADC Member=Component J13 CON2
Added Member To Class: ClassName=DAC Member=Component J14 CON2
