Added Component: Designator=C4(0805)
Added Component: Designator=C9(0805)
Added Component: Designator=R27(0805)
Added Component: Designator=R28(0805)
Added Component: Designator=R33(0805)
Added Component: Designator=R34(0805)
Added Pin To Net: NetName=DAC_OUTL2 Pin=C4-1
Added Pin To Net: NetName=DAC_JACK_L Pin=C4-2
Added Pin To Net: NetName=DAC_OUTR2 Pin=C9-1
Added Pin To Net: NetName=DAC_JACK_R Pin=C9-2
Added Pin To Net: NetName=DAC_INL2- Pin=R27-1
Added Pin To Net: NetName=DAC_OUTL2 Pin=R27-2
Added Pin To Net: NetName=DAC_VOUTL Pin=R28-1
Added Pin To Net: NetName=NetC5_1 Pin=R28-2
Added Pin To Net: NetName=DAC_INR2- Pin=R33-1
Added Pin To Net: NetName=DAC_OUTR2 Pin=R33-2
Added Pin To Net: NetName=DAC_VOUTR Pin=R34-1
Added Pin To Net: NetName=NetC10_1 Pin=R34-2
Added Member To Class: ClassName=DAC Member=Component C4 1uF
Added Member To Class: ClassName=DAC Member=Component C9 1uF
Added Member To Class: ClassName=DAC Member=Component R27 9k1
Added Member To Class: ClassName=DAC Member=Component R28 6k8
Added Member To Class: ClassName=DAC Member=Component R33 9k1
Added Member To Class: ClassName=DAC Member=Component R34 6k8
Added Room: Name=ADC
Added Room: Name=DAC
Added Room: Name=ProyectoTD2
Added Room: Name=SD
