Removed Pin From Net: NetName=LCD_RS Pin=*-56
Removed Pin From Net: NetName=LCD_RD Pin=*-62
Removed Pin From Net: NetName=DB0 Pin=*-69
Added Pin To Net: NetName=DB0 Pin=*-35
Added Pin To Net: NetName=LCD_RD Pin=*-36
Added Pin To Net: NetName=LCD_RS Pin=*-37
Added Room: Name=ADC
Added Room: Name=DAC
Added Room: Name=ProyectoTD2
Added Room: Name=SD
