Removed Pin From Net: NetName=DB2 Pin=*-70
Removed Pin From Net: NetName=DB4 Pin=*-71
Added Pin To Net: NetName=DB4 Pin=*-33
Added Pin To Net: NetName=DB2 Pin=*-34
Added Room: Name=ADC
Added Room: Name=DAC
Added Room: Name=ProyectoTD2
Added Room: Name=SD
