Removed Pin From Net: NetName=DAC_MUTE Pin=J9-4
Removed Pin From Net: NetName=DAC_ZEROA Pin=J10-1
Added Pin To Net: NetName=AGND Pin=J9-4
Added Pin To Net: NetName=AGND Pin=J10-1
Added Room: Name=ADC
Added Room: Name=DAC
Added Room: Name=ProyectoTD2
Added Room: Name=SD
