Removed Pin From Net: NetName=DB4 Pin=*-33
Removed Pin From Net: NetName=DB2 Pin=*-34
Removed Pin From Net: NetName=DB0 Pin=*-35
Removed Pin From Net: NetName=DB6 Pin=*-72
Removed Pin From Net: NetName=DB8 Pin=*-73
Added Pin To Net: NetName=DB6 Pin=*-50
Added Pin To Net: NetName=DB8 Pin=*-51
Added Pin To Net: NetName=DB4 Pin=*-55
Added Pin To Net: NetName=DB2 Pin=*-58
Added Pin To Net: NetName=DB0 Pin=*-59
Added Room: Name=ADC
Added Room: Name=DAC
Added Room: Name=ProyectoTD2
Added Room: Name=SD
